<svg width="1920" height="717" viewBox="0 0 1920 717" fill="none" xmlns="http://www.w3.org/2000/svg">
<g clip-path="url(#clip0_103_253)">
<path d="M1850.48 229.905C1896.86 193.672 2206.15 542.671 2355 717H-394C-379.637 640.09 -337.594 461.489 -284.322 362.361C-217.732 238.451 -97.0861 319.633 127.754 418.761C352.594 517.889 375.313 241.869 427.018 117.104C478.723 -7.6602 590.751 126.504 810.891 319.633C1031.03 512.762 948.772 126.505 1045.92 23.1037C1143.06 -80.2971 1352.23 185.469 1598.22 382.87C1844.21 580.272 1792.51 275.197 1850.48 229.905Z" fill="#080D0C"/>
<path d="M1535.91 477.189C1565.52 459.351 1762.97 631.173 1858 717H103C112.169 679.135 139.01 591.204 173.02 542.401C215.532 481.396 292.554 521.365 436.095 570.168C579.636 618.972 594.14 483.079 627.149 421.654C660.159 360.229 731.679 426.282 872.219 521.365C1012.76 616.448 960.244 426.282 1022.26 375.375C1084.28 324.467 1217.82 455.312 1374.86 552.498C1531.91 649.685 1498.9 499.487 1535.91 477.189Z" fill="#0C1514"/>
</g>
<defs>
    <clipPath id="clip0_103_253">
        <rect width="1920" height="717" fill="white"/>
    </clipPath>
</defs>
</svg>
